Chapter 6 Introduction to Bootstrapping | WBS MRes: Learning From Data
…
Ok, there we go. Remember, this sample is our ‘data set’ for analysis. Remember, it represents a sample of 50 cases from a population of 498.

We know the median and mean, but we have no real indication of the uncertainty in those estimates. What I mean is, without information about the population mean and median (which of course we would not have in a real-life sampling situation), we cannot know how close the sample median and mean are to the population mean and median.

In order to estimate that information, we will eventually use the bootstrap method. For now, we are just going to demonstrate the basic idea.

So, what we do now is draw another random sample of 50. However, we don’t draw it from the population, we instad draw the new sample of 50 from our existing sample of 50.

That sounds weird to many people, and at first they often say ‘but how can it be different from your original 50??’. The trick is that each time we draw a data point, we replace it back, so we are always drawing our sample from the full 50. This is called sampling with replacement.

In this way, the new sample can only contain values which were in the original sample, but can contain different frequencies of those values. Or in other words, each value can occur many different times, and that number of times may be different to the original sample. So the distribution of values in this new sample will be different to the original sample, and the statistics will therefore also be different.

Let’s draw this new sample, take the median and mean of the sample, and plot it:

## # A tibble: 50 × 4
##     ...1 biking smoking heart.disease
##    <dbl>  <dbl>   <dbl>         <dbl>
##  1   260  37.7    26.3          11.2 
##  2   200  12.9    25.2          16.3 
##  3   184  72.4     7.52          1.87
##  4    43   9.67    3.50         12.9 
##  5   439  63.8     9.91          3.40
##  6    35  20.2    10.3          13.4 
##  7   227  62.8    15.2           4.93
##  8   202  10.3    27.6          17.4 
##  9   116  25.8    28.5          14.4 
## 10   258  10.7    16.5          15.4 
## # ℹ 40 more rows
…
Marvelous! Now, for the purpose of example, let’s draw two more of these resamples from the original 50, take their median and mean, and plot the distributions…

## # A tibble: 50 × 4
##     ...1 biking smoking heart.disease
##    <dbl>  <dbl>   <dbl>         <dbl>
##  1   422   25.9   16.2          13.6 
##  2    70   22.9   24.6          16.2 
##  3   491   50.8    6.03          5.59
##  4    70   22.9   24.6          16.2 
##  5    71   59.8    8.70          5.69
##  6   362   49.9    3.86          5.33
##  7   258   10.7   16.5          15.4 
##  8   154   28.8   11.4          12.8 
##  9   357   19.4    6.12         11.5 
## 10   439   63.8    9.91          3.40
## # ℹ 40 more rows
…
## # A tibble: 50 × 4
##     ...1 biking smoking heart.disease
##    <dbl>  <dbl>   <dbl>         <dbl>
##  1   200  12.9    25.2          16.3 
##  2   416  38.1    17.0           8.35
##  3   488  69.9    26.0           6.76
##  4   200  12.9    25.2          16.3 
##  5   164  70.9    29.9           6.34
##  6   126   4.68   11.0          15.9 
##  7   163  14.7     9.83         13.3 
##  8   174  60.0    25.5           7.47
##  9    83  30.5    12.4          11.1 
## 10   468  56.2    19.2           6.51
## # ℹ 40 more rows
…
