Chapter 5 Beginning to Understand Uncertainty | WBS MRes: Learning From Data
…
We can do the same for successively larger samples, say 50, and 200:

## # A tibble: 50 × 4
##     ...1 biking smoking heart.disease
##    <dbl>  <dbl>   <dbl>         <dbl>
##  1   409   8.80   16.5          16.5 
##  2   422  25.9    16.2          13.6 
##  3   488  69.9    26.0           6.76
##  4   285  61.9    26.3           6.86
##  5   129  17.6    27.2          15.1 
##  6    70  22.9    24.6          16.2 
##  7   378  13.4    29.7          17.2 
##  8   184  72.4     7.52          1.87
##  9   468  56.2    19.2           6.51
## 10   381   8.52   29.9          17.9 
## # ℹ 40 more rows
…
## # A tibble: 200 × 4
##     ...1 biking smoking heart.disease
##    <dbl>  <dbl>   <dbl>         <dbl>
##  1    37   67.4   23.9           5.28
##  2    96   63.0   22.2           6.36
##  3   253   26.9   11.5          12.2 
##  4    60   26.4    7.76         11.0 
##  5     2   65.1    2.22          2.85
##  6   197   60.3   15.1           4.95
##  7   331   13.7   14.2          14.3 
##  8   478   11.9    1.14         12.8 
##  9   308   71.8   13.0           2.06
## 10   198   16.0   19.9          15.4 
## # ℹ 190 more rows
…
